{"page":2,"total_results":7413,"total_pages":371,"results":[{"popularity":29.733,"id":769,"video":false,"vote_count":7493,"vote_average":8.4,"title":"GoodFellas","release_date":"1990-09-12","original_language":"en","original_title":"GoodFellas","genre_ids":[18,80],"backdrop_path":"\/sw7mordbZxgITU877yTpZCud90M.jpg","adult":false,"overview":"The true story of Henry Hill, a half-Irish, half-Sicilian Brooklyn kid who is adopted by neighbourhood gangsters at an early age and climbs the ranks of a Mafia family under the guidance of Jimmy Conway.","poster_path":"\/oErEczcVUmJm0EPdvWsvK4g4Lv3.jpg"},{"popularity":11.4,"vote_count":621,"video":false,"poster_path":"\/m8eFedsS7vQCZCS8WGp5n1bVD0q.jpg","id":40096,"adult":false,"backdrop_path":"\/alQqTpmEkxSLgajfEYTsTH6nAKB.jpg","original_language":"pt","original_title":"O Auto da Compadecida","genre_ids":[12,35],"title":"A Dog's Will","vote_average":8.4,"overview":"The lively João Grilo and the sly Chicó are poor guys living in the hinterland who cheat a bunch of people in a small Northeast Brazil town. But when they die, they have to be judged by Christ, the Devil and the Virgin Mary, before they are admitted to paradise. The edited theatrical version of O Auto da Compadecida.","release_date":"2000-09-15"},{"popularity":19.917,"id":389,"video":false,"vote_count":4735,"vote_average":8.4,"title":"12 Angry Men","release_date":"1957-04-10","original_language":"en","original_title":"12 Angry Men","genre_ids":[18],"backdrop_path":"\/qqHQsStV6exghCM7zbObuYBiYxw.jpg","adult":false,"overview":"The defense and the prosecution have rested and the jury is filing into the jury room to decide if a young Spanish-American is guilty or innocent of murdering his father. What begins as an open and shut case soon becomes a mini-drama of each of the jurors' prejudices and preconceptions about the trial, the accused, and each other.","poster_path":"\/7sf9CgJz30aXDvrg7DYYUQ2U91T.jpg"},{"popularity":27.527,"vote_count":5094,"video":false,"poster_path":"\/sN4h2uODctPePR8ot611XK3fdbs.jpg","id":429,"adult":false,"backdrop_path":"\/xXoc8OZ8ivVlRfuS8wQ7PTt68ss.jpg","original_language":"it","original_title":"Il buono, il brutto, il cattivo","genre_ids":[37],"title":"The Good, the Bad and the Ugly","vote_average":8.4,"overview":"While the Civil War rages between the Union and the Confederacy, three men – a quiet loner, a ruthless hit man and a Mexican bandit – comb the American Southwest in search of a strongbox containing $200,000 in stolen gold.","release_date":"1966-12-23"},{"popularity":25.732,"vote_count":6290,"video":false,"poster_path":"\/81d8oyEFgj7FlxJqSDXWr8JH8kV.jpg","id":539,"adult":false,"backdrop_path":"\/kZGaVeXSkkvrpMYvD97sxHj291k.jpg","original_language":"en","original_title":"Psycho","genre_ids":[18,27,53],"title":"Psycho","vote_average":8.4,"overview":"When larcenous real estate clerk Marion Crane goes on the lam with a wad of cash and hopes of starting a new life, she ends up at the notorious Bates Motel, where manager Norman Bates cares for his housebound mother. The place seems quirky, but fine… until Marion decides to take a shower.","release_date":"1960-06-22"},{"popularity":21.55,"vote_count":6737,"video":false,"poster_path":"\/yMgm27NWJsNblsE6Y0px7NtUBl8.jpg","id":510,"adult":false,"backdrop_path":"\/qUq3QTr2KLvGIcN0GaaaYx9bbyH.jpg","original_language":"en","original_title":"One Flew Over the Cuckoo's Nest","genre_ids":[18],"title":"One Flew Over the Cuckoo's Nest","vote_average":8.4,"overview":"While serving time for insanity at a state mental hospital, implacable rabble-rouser, Randle Patrick McMurphy, inspires his fellow patients to rebel against the authoritarian rule of head nurse, Mildred Ratched.","release_date":"1975-11-18"},{"popularity":21.133,"vote_count":4272,"video":false,"poster_path":"\/4YEX7qUfg6kN2tHm84CMt2CEq9n.jpg","id":598,"adult":false,"backdrop_path":"\/AsoxSg4gkTFUpVUs4joxTxkUNKL.jpg","original_language":"pt","original_title":"Cidade de Deus","genre_ids":[80,18],"title":"City of God","vote_average":8.4,"overview":"Cidade de Deus is a shantytown that started during the 1960s and became one of Rio de Janeiro’s most dangerous places in the beginning of the 1980s. To tell the story of this place, the movie describes the life of various characters, all seen by the point of view of the narrator, Buscapé. Buscapé was raised in a very violent environment. Despite the feeling that all odds were against him, he finds out that life can be seen with other eyes...","release_date":"2002-02-05"},{"popularity":34.945,"vote_count":19365,"video":false,"poster_path":"\/bptfVGEQuv6vDTIMVCHjJ9Dz8PX.jpg","id":550,"adult":false,"backdrop_path":"\/8iVyhmjzUbvAGppkdCZPiyEHSoF.jpg","original_language":"en","original_title":"Fight Club","genre_ids":[18],"title":"Fight Club","vote_average":8.4,"overview":"A ticking-time-bomb insomniac and a slippery soap salesman channel primal male aggression into a shocking new form of therapy. Their concept catches on, with underground \"fight clubs\" forming in every town, until an eccentric gets in the way and ignites an out-of-control spiral toward oblivion.","release_date":"1999-10-15"},{"popularity":19.551,"vote_count":2326,"video":false,"poster_path":"\/8SRUfRUi6x4O68n0VCbDNRa6iGL.jpg","id":11216,"adult":false,"backdrop_path":"\/zoVeIgKzGJzpdG6Gwnr7iOYfIMU.jpg","original_language":"it","original_title":"Nuovo Cinema Paradiso","genre_ids":[18,10749],"title":"Cinema Paradiso","vote_average":8.4,"overview":"A filmmaker recalls his childhood, when he fell in love with the movies at his village's theater and formed a deep friendship with the theater's projectionist.","release_date":"1988-11-17"},{"popularity":22.572,"id":346,"video":false,"vote_count":1917,"vote_average":8.4,"title":"Seven Samurai","release_date":"1954-04-26","original_language":"ja","original_title":"七人の侍","genre_ids":[28,18],"backdrop_path":"\/mzI1JXm8sX5fia3ifPS2jGPUh2n.jpg","adult":false,"overview":"A samurai answers a village's request for protection after he falls on hard times. The town needs protection from bandits, so the samurai gathers six others to help him teach the people how to defend themselves, and the villagers provide the soldiers with food. A giant battle occurs when 40 bandits attack the village.","poster_path":"\/ApdijpVm1GNV9BQMOsGcAXq4gEB.jpg"},{"popularity":14.848,"vote_count":406,"video":false,"poster_path":"\/mi5VN4ww0JZgRFJIaPxxTGKjUg7.jpg","id":522924,"adult":false,"backdrop_path":"\/6esNUoXh4xQvucB7o7e3TCfjI65.jpg","original_language":"en","original_title":"The Art of Racing in the Rain","genre_ids":[35,18,10749],"title":"The Art of Racing in the Rain","vote_average":8.4,"overview":"A family dog—with a near-human soul and a philosopher's mind—evaluates his life through the lessons learned by his human owner, a race-car driver.","release_date":"2019-08-08"},{"popularity":39.837,"vote_count":7344,"video":false,"poster_path":"\/iiZZdoQBEYBv6id8su7ImL0oCbD.jpg","id":324857,"adult":false,"backdrop_path":"\/uUiId6cG32JSRI6RyBQSvQtLjz2.jpg","original_language":"en","original_title":"Spider-Man: Into the Spider-Verse","genre_ids":[28,12,16,35,878],"title":"Spider-Man: Into the Spider-Verse","vote_average":8.4,"overview":"Miles Morales is juggling his life between being a high school student and being a spider-man. When Wilson \"Kingpin\" Fisk uses a super collider, others from across the Spider-Verse are transported to this dimension.","release_date":"2018-12-06"},{"popularity":0.6,"vote_count":2773,"video":false,"poster_path":"\/wcNkHDbyc290hcWk7KXbBZUuXpq.jpg","id":12477,"adult":false,"backdrop_path":"\/dlC0ed9Ugh3FzydnkBtV5lRXUu4.jpg","original_language":"ja","original_title":"火垂るの墓","genre_ids":[16,18,10752],"title":"Grave of the Fireflies","vote_average":8.4,"overview":"In the final months of World War II, 14-year-old Seita and his sister Setsuko are orphaned when their mother is killed during an air raid in Kobe, Japan. After a falling out with their aunt, they move into an abandoned bomb shelter. With no surviving relatives and their emergency rations depleted, Seita and Setsuko struggle to survive.","release_date":"1988-04-16"},{"popularity":28.604,"id":4935,"video":false,"vote_count":5201,"vote_average":8.4,"title":"Howl's Moving Castle","release_date":"2004-11-19","original_language":"ja","original_title":"ハウルの動く城","genre_ids":[14,16,12],"backdrop_path":"\/vwBa7djy1oxfxUjc7YtVgGNsjrT.jpg","adult":false,"overview":"When Sophie, a shy young woman, is cursed with an old body by a spiteful witch, her only chance of breaking the spell lies with a self-indulgent yet insecure young wizard and his companions in his legged, walking castle.","poster_path":"\/TkTPELv4kC3u1lkloush8skOjE.jpg"},{"popularity":15.549,"id":599,"video":false,"vote_count":1383,"vote_average":8.4,"title":"Sunset Boulevard","release_date":"1950-08-10","original_language":"en","original_title":"Sunset Boulevard","genre_ids":[18],"backdrop_path":"\/p47ihFj4A7EpBjmPHdTj4ipyq1S.jpg","adult":false,"overview":"A hack screenwriter writes a screenplay for a former silent film star who has faded into Hollywood obscurity.","poster_path":"\/zt8aQ6ksqK6p1AopC5zVTDS9pKT.jpg"},{"popularity":15.03,"vote_count":1920,"video":false,"poster_path":"\/1QpO9wo7JWecZ4NiBuu625FiY1j.jpg","id":914,"adult":false,"backdrop_path":"\/7jTgJ24UPkWeb5zzH7ihs554xVy.jpg","original_language":"en","original_title":"The Great Dictator","genre_ids":[35],"title":"The Great Dictator","vote_average":8.4,"overview":"Dictator Adenoid Hynkel tries to expand his empire while a poor Jewish barber tries to avoid persecution from Hynkel's regime.","release_date":"1940-10-15"},{"popularity":34.649,"vote_count":9714,"video":false,"poster_path":"\/qq8xf2SQqHifUUyc0k6Hj1065f1.jpg","id":244786,"adult":false,"backdrop_path":"\/fRGxZuo7jJUWQsVg9PREb98Aclp.jpg","original_language":"en","original_title":"Whiplash","genre_ids":[18,10402],"title":"Whiplash","vote_average":8.4,"overview":"Under the direction of a ruthless instructor, a talented young drummer begins to pursue perfection at any cost, even his humanity.","release_date":"2014-10-10"},{"popularity":22.351,"vote_count":7471,"video":false,"poster_path":"\/c2gsmSQ2Cqv8zosqKOCwRS0GFBS.jpg","id":73,"adult":false,"backdrop_path":"\/o4Thn9ooTZAZOYrlbWgVB20weSf.jpg","original_language":"en","original_title":"American History X","genre_ids":[18],"title":"American History X","vote_average":8.4,"overview":"Derek Vineyard is paroled after serving 3 years in prison for killing two thugs who tried to break into\/steal his truck. Through his brother, Danny Vineyard's narration, we learn that before going to prison, Derek was a skinhead and the leader of a violent white supremacist gang that committed acts of racial crime throughout L.A. and his actions greatly influenced Danny. Reformed and fresh out of prison, Derek severs contact with the gang and becomes determined to keep Danny from going down the same violent path as he did.","release_date":"1998-10-30"},{"popularity":22.853,"vote_count":11622,"video":false,"poster_path":"\/7BuH8itoSrLExs2YZSsM01Qk2no.jpg","id":1891,"adult":false,"backdrop_path":"\/azIbQpeKKNF9r85lBSRrNnMK0Si.jpg","original_language":"en","original_title":"The Empire Strikes Back","genre_ids":[28,12,878],"title":"The Empire Strikes Back","vote_average":8.4,"overview":"The epic saga continues as Luke Skywalker, in hopes of defeating the evil Galactic Empire, learns the ways of the Jedi from aging master Yoda. But Darth Vader is more determined than ever to capture Luke. Meanwhile, rebel leader Princess Leia, cocky Han Solo, Chewbacca, and droids C-3PO and R2-D2 are thrown into various stages of capture, betrayal and despair.","release_date":"1980-05-20"},{"popularity":15.936,"vote_count":1172,"video":false,"poster_path":"\/bXNvzjULc9jrOVhGfjcc64uKZmZ.jpg","id":901,"adult":false,"backdrop_path":"\/vT6ux2rdyg2kexuLisO5Ygz7pHg.jpg","original_language":"xx","original_title":"City Lights","genre_ids":[35,18,10749],"title":"City Lights","vote_average":8.4,"overview":"City Lights is the first silent film that Charlie Chaplin directed after he established himself with sound accompanied films. The film is about a penniless man who falls in love with a flower girl.","release_date":"1931-02-01"}]}