{"page":3,"total_results":7413,"total_pages":371,"results":[{"popularity":16.043,"vote_count":526,"video":false,"poster_path":"\/dgNTS4EQDDVfkzJI5msKuHu2Ei3.jpg","id":3782,"adult":false,"backdrop_path":"\/j0zrfpozbek9OeapYYS9w8ECFn5.jpg","original_language":"ja","original_title":"生きる","genre_ids":[18],"title":"Ikiru","vote_average":8.4,"overview":"Kanji Watanabe is a middle-aged man who has worked in the same monotonous bureaucratic position for decades. Learning he has cancer, he starts to look for the meaning of his life.","release_date":"1952-10-09"},{"popularity":18.677,"vote_count":3735,"video":false,"poster_path":"\/ILVF0eJxHMddjxeQhswFtpMtqx.jpg","id":567,"adult":false,"backdrop_path":"\/qt01wUC460FCWfogDqe3UO00T3g.jpg","original_language":"en","original_title":"Rear Window","genre_ids":[18,9648,53],"title":"Rear Window","vote_average":8.3,"overview":"Professional photographer L.B. 'Jeff' Jeffries breaks his leg while getting an action shot at an auto race. Confined to his New York apartment, he spends his time looking out of the rear window observing the neighbors. When he begins to suspect that a man across the courtyard may have murdered his wife, Jeff enlists the help of his high society fashion-consultant girlfriend and his visiting nurse to investigate.","release_date":"1954-09-01"},{"popularity":9.589,"vote_count":811,"video":false,"poster_path":"\/dbsS4oBDwLTVTuIiqwTls9wD1I1.jpg","id":432517,"adult":false,"backdrop_path":null,"original_language":"en","original_title":"Sherlock: The Final Problem","genre_ids":[18,9648],"title":"Sherlock: The Final Problem","vote_average":8.3,"overview":"Long buried secrets finally come to light as someone has been playing a very long game indeed. Sherlock and John face their greatest ever challenge. Is the game finally over?","release_date":"2017-01-15"},{"popularity":26.496,"vote_count":4787,"video":false,"poster_path":"\/pdtzEreKvKAlqa2YEBaGwiA45V8.jpg","id":128,"adult":false,"backdrop_path":"\/munffkEccvkGzuLwhLvRkTr9KAr.jpg","original_language":"ja","original_title":"もののけ姫","genre_ids":[12,16,14],"title":"Princess Mononoke","vote_average":8.3,"overview":"Ashitaka, a prince of the disappearing Emishi people, is cursed by a demonized boar god and must journey to the west to find a cure. Along the way, he encounters San, a young human woman fighting to protect the forest, and Lady Eboshi, who is trying to destroy it. Ashitaka must find a way to bring balance to this conflict.","release_date":"1997-07-12"},{"popularity":15.248,"id":975,"video":false,"vote_count":1544,"vote_average":8.3,"title":"Paths of Glory","release_date":"1957-09-18","original_language":"en","original_title":"Paths of Glory","genre_ids":[18,10752],"backdrop_path":"\/yFykLiFuBU6CrGWr2hLP0ttbQ2i.jpg","adult":false,"overview":"A commanding officer defends three scapegoats on trial for a failed offensive that occurred within the French Army in 1916.","poster_path":"\/peblNaHOiTR8DACYyUWsJHhK6GP.jpg"},{"popularity":10.233,"vote_count":275,"video":false,"poster_path":"\/zw77BFPGJ73Lig8GwRzYj1XHq53.jpg","id":620683,"adult":false,"backdrop_path":"\/oTWT3IBGc95jmH3aH5QDXeAe9mR.jpg","original_language":"pt","original_title":"Minha Mãe é Uma Peça 3: O Filme","genre_ids":[35],"title":"My Mom is a Character 3","vote_average":8.3,"overview":"Dona Hermínia will have to rediscover and reinvent herself because her children are forming new families. This supermom will have to deal with a new life scenario: Marcelina is pregnant and Juliano is getting married.","release_date":"2019-12-26"},{"popularity":17.037,"id":14537,"video":false,"vote_count":362,"vote_average":8.3,"title":"Harakiri","release_date":"1962-09-15","original_language":"ja","original_title":"切腹","genre_ids":[28,18,36],"backdrop_path":"\/23XAzEpKuKUFLW2aWANbuNmqSvL.jpg","adult":false,"overview":"An unusual request for ritual suicide on a feudal lord's property leads to the unwinding of a greater mystery that challenges the clan's integrity.","poster_path":"\/fRqVjso3rdEcxZHXWE2xazDAtjI.jpg"},{"popularity":20.453,"vote_count":5349,"video":false,"poster_path":"\/3DzePKMbLMIM636S6syCy3cLPqj.jpg","id":423,"adult":false,"backdrop_path":"\/A7r8GRpvOojI2Vl5EEJfAIfzCg9.jpg","original_language":"en","original_title":"The Pianist","genre_ids":[18,10752],"title":"The Pianist","vote_average":8.3,"overview":"The true story of pianist Władysław Szpilman's experiences in Warsaw during the Nazi occupation. When the Jews of the city find themselves forced into a ghetto, Szpilman finds work playing in a café; and when his family is deported in 1942, he stays behind, works for a while as a laborer, and eventually goes into hiding in the ruins of the war-torn city.","release_date":"2002-09-17"},{"popularity":17.094,"id":18148,"video":false,"vote_count":495,"vote_average":8.3,"title":"Tokyo Story","release_date":"1953-11-03","original_language":"ja","original_title":"東京物語","genre_ids":[18],"backdrop_path":"\/jLq0ol1f0ZKXni9R9GsPBcyPrNN.jpg","adult":false,"overview":"The elderly Shukishi and his wife, Tomi, take the long journey from their small seaside village to visit their adult children in Tokyo. Their elder son, Koichi, a doctor, and their daughter, Shige, a hairdresser, don't have much time to spend with their aged parents, and so it falls to Noriko, the widow of their younger son who was killed in the war, to keep her in-laws company.","poster_path":"\/g2YbTYKpY7N2yDSk7BfXZ18I5QV.jpg"},{"popularity":46.501,"id":120,"video":false,"vote_count":17135,"vote_average":8.3,"title":"The Lord of the Rings: The Fellowship of the Ring","release_date":"2001-12-18","original_language":"en","original_title":"The Lord of the Rings: The Fellowship of the Ring","genre_ids":[12,14,28],"backdrop_path":"\/vRQnzOn4HjIMX4LBq9nHhFXbsSu.jpg","adult":false,"overview":"Young hobbit Frodo Baggins, after inheriting a mysterious ring from his uncle Bilbo, must leave his home in order to keep it from falling into the hands of its evil creator. Along the way, a fellowship is formed to protect the ringbearer and make sure that the ring arrives at its final destination: Mt. Doom, the only place where it can be destroyed.","poster_path":"\/6oom5QYQ2yQTMJIbnvbkBL9cHo6.jpg"},{"popularity":17.464,"vote_count":313,"video":false,"poster_path":"\/tgNjemQPG96uIezpiUiXFcer5ga.jpg","id":12493,"adult":false,"backdrop_path":"\/2xliq3zIrQPIWG66Fc0bgVoBUWc.jpg","original_language":"ja","original_title":"天国と地獄","genre_ids":[80,18,9648,53],"title":"High and Low","vote_average":8.3,"overview":"An executive of a shoe company becomes a victim of extortion when his chauffeur's son is kidnapped and held for ransom.","release_date":"1963-03-01"},{"popularity":17.822,"vote_count":7168,"video":false,"poster_path":"\/ai40gM7SUaGA6fthvsd87o8IQq4.jpg","id":207,"adult":false,"backdrop_path":"\/hpzQHv8cA7j2Dn2CphOFYmllXzj.jpg","original_language":"en","original_title":"Dead Poets Society","genre_ids":[18],"title":"Dead Poets Society","vote_average":8.3,"overview":"At an elite, old-fashioned boarding school in New England, a passionate English teacher inspires his students to rebel against convention and seize the potential of every day, courting the disdain of the stern headmaster.","release_date":"1989-06-02"},{"popularity":20.021,"vote_count":2656,"video":false,"poster_path":"\/bOth4QmNyEkalwahfPCfiXjNh1r.jpg","id":637920,"adult":false,"backdrop_path":"\/4YbHir4Ka4kG7WOdh0anXv1iT8s.jpg","original_language":"tr","original_title":"7. Koğuştaki Mucize","genre_ids":[35,18,10751],"title":"Miracle in Cell No. 7","vote_average":8.3,"overview":"Separated from his daughter, a father with an intellectual disability must prove his innocence when he is jailed for the death of a commander's child.","release_date":"2019-10-10"},{"popularity":15.166,"id":18491,"video":false,"vote_count":543,"vote_average":8.3,"title":"Neon Genesis Evangelion: The End of Evangelion","release_date":"1997-07-19","original_language":"ja","original_title":"新世紀エヴァンゲリオン劇場版 THE END OF EVANGELION","genre_ids":[18,878,16,14,28],"backdrop_path":"\/hyaLMOol8xju70zr5glK6JaprER.jpg","adult":false,"overview":"The second of two theatrically released follow-ups to the Neon Genesis Evangelion series. Comprising of two alternate episodes which were first intended to take the place of episodes 25 and 26, this finale answers many of the questions surrounding the series, while also opening up some new possibilities.","poster_path":"\/m9PTii0XWCIKZBBrCrOn8RLTK0w.jpg"},{"popularity":71.421,"vote_count":26082,"video":false,"poster_path":"\/9gk7adHYeDvHkCSEqAvQNLV5Uge.jpg","id":27205,"adult":false,"backdrop_path":"\/s3TBrRGB1iav7gFOCNx3H31MoES.jpg","original_language":"en","original_title":"Inception","genre_ids":[28,12,878],"title":"Inception","vote_average":8.3,"overview":"Cobb, a skilled thief who commits corporate espionage by infiltrating the subconscious of his targets is offered a chance to regain his old life as payment for a task considered to be impossible: \"inception\", the implantation of another person's idea into a target's subconscious.","release_date":"2010-07-15"},{"popularity":10.823,"vote_count":387,"video":false,"poster_path":"\/2Fb8neVxZtCIXwbJ9DOk6Ra29mV.jpg","id":452522,"adult":false,"backdrop_path":"\/144EasyUFWvzA26CWxcUlHXuMDr.jpg","original_language":"en","original_title":"Twin Peaks: Northwest Passage","genre_ids":[80,18,9648,10770],"title":"Twin Peaks: Northwest Passage","vote_average":8.3,"overview":"An idiosyncratic FBI agent investigates the murder of a young woman in the even more idiosyncratic town of Twin Peaks. (This standalone version of the series pilot was produced for the European VHS market and has an alternate, closed ending.)","release_date":"1989-09-01"},{"popularity":13.679,"vote_count":1776,"video":false,"poster_path":"\/zR1oHk9seg14nBF7JqaYeOeeTeY.jpg","id":265177,"adult":false,"backdrop_path":"\/1pFOSZiOG7PJUY5Tafv0qxGKQXo.jpg","original_language":"fr","original_title":"Mommy","genre_ids":[18],"title":"Mommy","vote_average":8.3,"overview":"A peculiar neighbor offers hope to a recent widow who is struggling to raise a teenager who is unpredictable and, sometimes, violent.","release_date":"2014-05-22"},{"popularity":35.678,"vote_count":9507,"video":false,"poster_path":"\/wHqGb8J6tXBVwjqWooGMtNEjs2A.jpg","id":101,"adult":false,"backdrop_path":"\/oPcxdm2rNv5xg2sZlzjwKtAiPXl.jpg","original_language":"en","original_title":"Léon: The Professional","genre_ids":[28,80,18],"title":"Léon: The Professional","vote_average":8.3,"overview":"Léon, the top hit man in New York, has earned a rep as an effective \"cleaner\". But when his next-door neighbors are wiped out by a loose-cannon DEA agent, he becomes the unwilling custodian of 12-year-old Mathilda. Before long, Mathilda's thoughts turn to revenge, and she considers following in Léon's footsteps.","release_date":"1994-09-14"},{"popularity":8.756,"vote_count":370,"video":false,"poster_path":"\/q9q0tLECLkHrJkbTCr4uQnsv1O9.jpg","id":26451,"adult":false,"backdrop_path":"\/2Z3hHXg62v6FnNWhI4Nre5L6kEQ.jpg","original_language":"it","original_title":"Indagine su un cittadino al di sopra di ogni sospetto","genre_ids":[80,18],"title":"Investigation of a Citizen Above Suspicion","vote_average":8.3,"overview":"A chief of detectives, homicide section, kills his mistress and deliberately leaves clues to prove his own responsibility for the crime.","release_date":"1970-11-13"},{"popularity":55.344,"vote_count":13148,"video":false,"poster_path":"\/6yoghtyTpznpBik8EngEmJskVUO.jpg","id":807,"adult":false,"backdrop_path":"\/4U4q1zjIwCZTNkp6RKWkWPuC7uI.jpg","original_language":"en","original_title":"Se7en","genre_ids":[80,9648,53],"title":"Se7en","vote_average":8.3,"overview":"Two homicide detectives are on a desperate hunt for a serial killer whose crimes are based on the \"seven deadly sins\" in this dark and haunting film that takes viewers from the tortured remains of one victim to the next. The seasoned Det. Sommerset researches each sin in an effort to get inside the killer's mind, while his novice partner, Mills, scoffs at his efforts to unravel the case.","release_date":"1995-09-22"}]}