{"page":4,"total_results":7413,"total_pages":371,"results":[{"popularity":13.23,"vote_count":559,"video":false,"poster_path":"\/qkhP3bhxQQjs1bGEWNts64DOUkK.jpg","id":313106,"adult":false,"backdrop_path":"\/cTlUjRNgZfQxjNskbMJl1sKhIsr.jpg","original_language":"en","original_title":"Doctor Who: The Day of the Doctor","genre_ids":[12,878],"title":"Doctor Who: The Day of the Doctor","vote_average":8.3,"overview":"In 2013, something terrible is awakening in London's National Gallery; in 1562, a murderous plot is afoot in Elizabethan England; and somewhere in space an ancient battle reaches its devastating conclusion. All of reality is at stake as the Doctor's own dangerous past comes back to haunt him.","release_date":"2013-11-23"},{"popularity":9.243,"vote_count":297,"video":false,"poster_path":"\/fyzLdWLheQ0w1OLfrV3Nt4Veeog.jpg","id":11659,"adult":false,"backdrop_path":"\/leF9AKe937UhQsfWGtXfG7tBRvU.jpg","original_language":"it","original_title":"La meglio gioventú","genre_ids":[18,10749],"title":"The Best of Youth","vote_average":8.3,"overview":"Spanning four decades, from the chaotic 1960s to the present, director Marco Tullio Giordana's passionate epic 'La Meglio Gioventu' follows two Italian brothers through some of the most tumultuous events of recent Italian history.","release_date":"2003-06-22"},{"popularity":16.808,"vote_count":2205,"video":false,"poster_path":"\/7uoiKOEjxBBW0AgDGQWrlfGQ90w.jpg","id":3082,"adult":false,"backdrop_path":"\/83cMbOs2Ng7kfL3U8hpcXEQDXCw.jpg","original_language":"en","original_title":"Modern Times","genre_ids":[35,18],"title":"Modern Times","vote_average":8.3,"overview":"The Tramp struggles to live in modern industrial society with the help of a young homeless woman.","release_date":"1936-02-05"},{"popularity":15.044,"vote_count":282,"video":false,"poster_path":"\/vHdVU0HyyB6k6kuYt8qjwTz9one.jpg","id":504253,"adult":false,"backdrop_path":"\/YLyORLsYIjC0d1TFBSpJKk7piP.jpg","original_language":"ja","original_title":"君の膵臓をたべたい","genre_ids":[16,18,10749],"title":"I Want to Eat Your Pancreas","vote_average":8.3,"overview":"Spring time in April and the last of the cherry blossoms are still in bloom. The usually aloof bookworm with no interest in others comes across a book in a hospital waiting room. Handwritten on the cover are the words: \"Living with Dying.\" He soon discovers that it is a diary kept by his very popular and genuinely cheerful classmate, Sakura Yamauchi, who reveals to him that she is secretly suffering from a pancreatic illness and only has a limited time left. It is at this moment that she gains just one more person to share her secret. Trying to maintain a normal life as much as possible, Sakura is determined to live her life to the fullest until the very last day. As her free spirit and unpredictable actions throw him for a loop, his heart begins to gradually change.","release_date":"2018-09-01"},{"popularity":33.72,"vote_count":14756,"video":false,"poster_path":"\/5VTN0pR8gcqV3EPUHHfMGnJYN9L.jpg","id":121,"adult":false,"backdrop_path":"\/9BUvLUz1GhbNpcyQRyZm1HNqMq4.jpg","original_language":"en","original_title":"The Lord of the Rings: The Two Towers","genre_ids":[28,12,14],"title":"The Lord of the Rings: The Two Towers","vote_average":8.3,"overview":"Frodo and Sam are trekking to Mordor to destroy the One Ring of Power while Gimli, Legolas and Aragorn search for the orc-captured Merry and Pippin. All along, nefarious wizard Saruman awaits the Fellowship members at the Orthanc Tower in Isengard.","release_date":"2002-12-18"},{"popularity":12.75,"vote_count":1402,"video":false,"poster_path":"\/5eqMnFLAep9jkn1rDAg7M2WiuHQ.jpg","id":10376,"adult":false,"backdrop_path":"\/6rmb35g7XoMCMQtnbH0rUecFZlV.jpg","original_language":"it","original_title":"La leggenda del pianista sull'oceano","genre_ids":[18,10402,10749],"title":"The Legend of 1900","vote_average":8.3,"overview":"The story of a virtuoso piano player who lives his entire life aboard an ocean liner. Born and raised on the ship, 1900 (Tim Roth) learned about the outside world through interactions with passengers, never setting foot on land, even for the love of his life. Years later, the ship may be destroyed, and a former band member fears that 1900 may still be aboard, willing to go down with the ship.","release_date":"1998-10-28"},{"popularity":20.921,"vote_count":1695,"video":false,"poster_path":"\/q125RHUDgR4gjwh1QkfYuJLYkL.jpg","id":508965,"adult":false,"backdrop_path":"\/xBD64RBepJDWmGhcxZMiJC9JKRZ.jpg","original_language":"en","original_title":"Klaus","genre_ids":[12,16,35,10751],"title":"Klaus","vote_average":8.3,"overview":"When Jesper distinguishes himself as the Postal Academy's worst student, he is sent to Smeerensburg, a small village located on an icy island above the Arctic Circle, where grumpy inhabitants barely exchange words, let alone letters. Jesper is about to give up and abandon his duty as a postman when he meets local teacher Alva and Klaus, a mysterious carpenter who lives alone in a cabin full of handmade toys.","release_date":"2019-11-08"},{"popularity":5.46,"vote_count":10368,"video":false,"poster_path":"\/rplLJ2hPcOQmkFhTqUte0MkEaO2.jpg","id":274,"adult":false,"backdrop_path":"\/pI9B4wppGflpsOD2T6rxgC5Clmz.jpg","original_language":"en","original_title":"The Silence of the Lambs","genre_ids":[80,18,27,53],"title":"The Silence of the Lambs","vote_average":8.3,"overview":"Clarice Starling is a top student at the FBI's training academy. Jack Crawford wants Clarice to interview Dr. Hannibal Lecter, a brilliant psychiatrist who is also a violent psychopath, serving life behind bars for various acts of murder and cannibalism. Crawford believes that Lecter may have insight into a case and that Starling, as an attractive young woman, may be just the bait to draw him out.","release_date":"1991-02-01"},{"popularity":14.92,"id":25237,"video":false,"vote_count":476,"vote_average":8.3,"title":"Come and See","release_date":"1985-09-03","original_language":"ru","original_title":"Иди и смотри","genre_ids":[18,10752,36],"backdrop_path":"\/oIQMt3Q6Qa37YD0JOdYkrIAPYDk.jpg","adult":false,"overview":"The invasion of a village in Byelorussia by German forces sends young Florya into the forest to join the weary Resistance fighters, against his family's wishes. There he meets a girl, Glasha, who accompanies him back to his village. On returning home, Florya finds his family and fellow peasants massacred. His continued survival amidst the brutal debris of war becomes increasingly nightmarish, a battle between despair and hope.","poster_path":"\/90A8sXK9QZVJ7Rj8nLdsj5NuO5s.jpg"},{"popularity":9.765,"vote_count":343,"video":false,"poster_path":"\/9ItdJzfdHK5LJ3KrlopGjVLABY4.jpg","id":24188,"adult":false,"backdrop_path":"\/kXMiytZZeEUf60V0xiGSO36Gawn.jpg","original_language":"it","original_title":"Il sorpasso","genre_ids":[35,18],"title":"Il Sorpasso","vote_average":8.3,"overview":"Roberto, a shy law student in Rome, meets Bruno, a forty-year-old exuberant, capricious man, who takes him for a drive through the Roman and Tuscany countries in the summer. Along the way, they end up knowing each other and entering each other's lives. A twist at the end puts everything into perspective.","release_date":"1962-12-04"},{"popularity":24.384,"id":335,"video":false,"vote_count":2555,"vote_average":8.3,"title":"Once Upon a Time in the West","release_date":"1968-12-21","original_language":"it","original_title":"C'era una volta il West","genre_ids":[37],"backdrop_path":"\/h31SOVlekuHXsMWVGxI8nPPfY82.jpg","adult":false,"overview":"A widow whose land and life are in danger as the railroad is getting closer and closer to taking them over. A mysterious harmonica player joins forces with a desperado to protect the woman and her land.","poster_path":"\/3RymloPYcEPx30T1vTrz2cXaVnh.jpg"},{"popularity":23.086,"id":378064,"video":false,"vote_count":1679,"vote_average":8.3,"title":"A Silent Voice","release_date":"2016-09-17","original_language":"ja","original_title":"聲の形","genre_ids":[18,16,10749],"backdrop_path":"\/q5HZvtyqG8Vz39Ee9uTQbLeEml.jpg","adult":false,"overview":"Shouya Ishida starts bullying the new girl in class, Shouko Nishimiya, because she is deaf. But as the teasing continues, the rest of the class starts to turn on Shouya for his lack of compassion. When they leave elementary school, Shouko and Shouya do not speak to each other again... until an older, wiser Shouya, tormented by his past behaviour, decides he must see Shouko once more. He wants to atone for his sins, but is it already too late...?","poster_path":"\/drlyoSKDOPnxzJFrRWGqzDsyJvR.jpg"},{"popularity":16.453,"vote_count":1045,"video":false,"poster_path":"\/bdXbfUir63TQHA5NTNcXPICZCW8.jpg","id":797,"adult":false,"backdrop_path":"\/32YB3OXR036XBi1Dm5i9D0hDM2o.jpg","original_language":"sv","original_title":"Persona","genre_ids":[18],"title":"Persona","vote_average":8.3,"overview":"A young nurse, Alma, is put in charge of Elisabeth Vogler: an actress who is seemingly healthy in all respects, but will not talk. As they spend time together, Alma speaks to Elisabeth constantly, never receiving any answer. Alma eventually confesses her secrets to a seemingly sympathetic Elisabeth and finds that her own personality is being submerged into Elisabeth's persona.","release_date":"1966-10-18"},{"popularity":57.006,"vote_count":22640,"video":false,"poster_path":"\/gEU2QniE6E77NI6lCU6MxlNBvIx.jpg","id":157336,"adult":false,"backdrop_path":"\/9mmkq59uRuJWDFz9UHeX5ATNJYf.jpg","original_language":"en","original_title":"Interstellar","genre_ids":[12,18,878],"title":"Interstellar","vote_average":8.3,"overview":"Interstellar chronicles the adventures of a group of explorers who make use of a newly discovered wormhole to surpass the limitations on human space travel and conquer the vast distances involved in an interstellar voyage.","release_date":"2014-11-05"},{"popularity":10.125,"vote_count":418,"video":false,"poster_path":"\/8ICSqaT3glt9w5T2GNntMgZNyZT.jpg","id":20914,"adult":false,"backdrop_path":"\/nehF3O4pS8vETlA1WMHVQizqbZh.jpg","original_language":"it","original_title":"Amici miei","genre_ids":[35],"title":"My Friends","vote_average":8.3,"overview":"Like in many other Monicelli movies, the main theme of Amici miei is friendship, seen from a rather bitter point of view. It tells the story of four middle-aged friends in Florence who organize together idle pranks (called zingarate, \"gypsy shenanigans\") in a continuous attempt to prolong childhood during their adult life.","release_date":"1975-08-15"},{"popularity":31.944,"vote_count":1733,"video":false,"poster_path":"\/ic4s9k48semzBCUrbglyCmnGaHJ.jpg","id":290098,"adult":false,"backdrop_path":"\/2OAWsa5DpHi28PdA8tbimArBazF.jpg","original_language":"ko","original_title":"아가씨","genre_ids":[18,53,10749],"title":"The Handmaiden","vote_average":8.3,"overview":"1930s Korea, in the period of Japanese occupation, a young woman is hired as a handmaiden to a Japanese heiress who lives a secluded life on a large countryside estate with her domineering uncle. But, the maid has a secret: she is a pickpocket recruited by a swindler posing as a Japanese count to help him seduce the heiress to elope with him, rob her of her fortune, and lock her up in a madhouse. The plan seems to proceed according to plan until the women discover some unexpected emotions.","release_date":"2016-06-01"},{"popularity":61.403,"vote_count":13537,"video":false,"poster_path":"\/or06FN3Dka5tukK1e9sl16pB3iy.jpg","id":299534,"adult":false,"backdrop_path":"\/7RyHsO4yDXtBv1zUU3mTpHeQ0d5.jpg","original_language":"en","original_title":"Avengers: Endgame","genre_ids":[28,12,878],"title":"Avengers: Endgame","vote_average":8.3,"overview":"After the devastating events of Avengers: Infinity War, the universe is in ruins due to the efforts of the Mad Titan, Thanos. With the help of remaining allies, the Avengers must assemble once more in order to undo Thanos' actions and restore order to the universe once and for all, no matter what consequences may be in store.","release_date":"2019-04-24"},{"popularity":16.307,"id":1398,"video":false,"vote_count":1009,"vote_average":8.3,"title":"Stalker","release_date":"1979-05-25","original_language":"ru","original_title":"Сталкер","genre_ids":[878,18],"backdrop_path":"\/w6WPxexN3QWWAawJUdLVFUYIQBG.jpg","adult":false,"overview":"Near a gray and unnamed city is the Zone, a place guarded by barbed wire and soldiers, and where the normal laws of physics are victim to frequent anomalies. A stalker guides two men into the Zone, specifically to an area in which deep-seated desires are granted.","poster_path":"\/lUE0Bp7wH0EterJ44qMRsqtKFnp.jpg"},{"popularity":20.579,"vote_count":1269,"video":false,"poster_path":"\/9wvOlM8f3obvG9tNTkpZvF0CUU1.jpg","id":422,"adult":false,"backdrop_path":"\/oNq6WiGDMAvx1ophgAtD6RyajpH.jpg","original_language":"it","original_title":"8½","genre_ids":[18,14],"title":"8½","vote_average":8.3,"overview":"Guido Anselmi, a film director, finds himself creatively barren at the peak of his career. Urged by his doctors to rest, Anselmi heads for a luxurious resort, but a sorry group gathers—his producer, staff, actors, wife, mistress, and relatives—each one begging him to get on with the show. In retreat from their dependency, he fantasizes about past women and dreams of his childhood.","release_date":"1963-02-14"},{"popularity":28.719,"id":398818,"video":false,"vote_count":7209,"vote_average":8.3,"title":"Call Me by Your Name","release_date":"2017-09-01","original_language":"en","original_title":"Call Me by Your Name","genre_ids":[10749,18],"backdrop_path":"\/hrMbAi9fPTmc6EtpyyAgDKznptu.jpg","adult":false,"overview":"In 1980s Italy, a relationship begins between seventeen-year-old teenage Elio and the older adult man hired as his father's research assistant.","poster_path":"\/tcNniniS4rfqrLH0oORikJfnIwY.jpg"}]}