{"page":5,"total_results":7413,"total_pages":371,"results":[{"popularity":17.171,"vote_count":1173,"video":false,"poster_path":"\/95zlq13ql7d5V6TEMRRYilTmTOp.jpg","id":284,"adult":false,"backdrop_path":"\/1HSgkvoOyr47cSNKgDLbRYhEoMq.jpg","original_language":"en","original_title":"The Apartment","genre_ids":[35,18,10749],"title":"The Apartment","vote_average":8.3,"overview":"Bud Baxter is a minor clerk in a huge New York insurance company, until he discovers a quick way to climb the corporate ladder. He lends out his apartment to the executives as a place to take their mistresses. Although he often has to deal with the aftermath of their visits, one night he's left with a major problem to solve.","release_date":"1960-06-21"},{"popularity":28.522,"vote_count":6405,"video":false,"poster_path":"\/7BsvSuDQuoqhWmU2fL7W2GOcZHU.jpg","id":490132,"adult":false,"backdrop_path":"\/78PjwaykLY2QqhMfWRDvmfbC6EV.jpg","original_language":"en","original_title":"Green Book","genre_ids":[35,18],"title":"Green Book","vote_average":8.3,"overview":"Tony Lip, a bouncer in 1962, is hired to drive pianist Don Shirley on a tour through the Deep South in the days when African Americans, forced to find alternate accommodations and services due to segregation laws below the Mason-Dixon Line, relied on a guide called The Negro Motorist Green Book.","release_date":"2018-11-16"},{"popularity":14.385,"vote_count":672,"video":false,"poster_path":"\/bCj4EfuehAlgBwVd3diyWyhuuau.jpg","id":37257,"adult":false,"backdrop_path":"\/evUB9YKE5IPPtQOchcEF6hS90BO.jpg","original_language":"en","original_title":"Witness for the Prosecution","genre_ids":[80,18,9648],"title":"Witness for the Prosecution","vote_average":8.3,"overview":"When Leonard Vole is arrested for the sensational murder of a rich, middle-aged widow, the famous Sir Wilfrid Robarts agrees to appear on his behalf. Sir Wilfrid, recovering from a near-fatal heart attack, is supposed to be on a diet of bland, civil suits—but the lure of the criminal courts is too much for him, especially when the case is so difficult.","release_date":"1957-12-17"},{"popularity":11.004,"id":24382,"video":false,"vote_count":381,"vote_average":8.3,"title":"Big Deal on Madonna Street","release_date":"1958-06-06","original_language":"it","original_title":"I soliti ignoti","genre_ids":[35,80],"backdrop_path":"\/ryoWP1kvNcwPif6uNbuZwQfrJPy.jpg","adult":false,"overview":"Best friends Peppe and Mario are thieves, but they're not very good at it. Still, Peppe thinks that he's finally devised a master heist that will make them rich. With the help of some fellow criminals, he plans to dig a tunnel from a rented apartment to the pawnshop next door, where they can rob the safe. But his plan is far from foolproof, and the fact that no one in the group has any experience digging tunnels proves to be the least of their problems.","poster_path":"\/f5OxD8Nl0pR3DcYHtYhHRfpsmjl.jpg"},{"popularity":30.659,"vote_count":13212,"video":false,"poster_path":"\/7lyBcpYB0Qt8gYhXYaEZUNlNQAv.jpg","id":105,"adult":false,"backdrop_path":"\/fq3wyOs1RHyz2yfzsb4sck7aWRG.jpg","original_language":"en","original_title":"Back to the Future","genre_ids":[12,35,878,10751],"title":"Back to the Future","vote_average":8.3,"overview":"Eighties teenager Marty McFly is accidentally sent back in time to 1955, inadvertently disrupting his parents' first meeting and attracting his mother's romantic interest. Marty must repair the damage to history by rekindling his parents' romance and - with the help of his eccentric inventor friend Doc Brown - return to 1985.","release_date":"1985-07-03"},{"popularity":59.902,"vote_count":18442,"video":false,"poster_path":"\/7WsyChQLEftFiDOVTGkv3hFpyyt.jpg","id":299536,"adult":false,"backdrop_path":"\/lmZFxXgJE3vgrciwuDib0N8CfQo.jpg","original_language":"en","original_title":"Avengers: Infinity War","genre_ids":[28,12,878],"title":"Avengers: Infinity War","vote_average":8.3,"overview":"As the Avengers and their allies have continued to protect the world from threats too large for any one hero to handle, a new danger has emerged from the cosmic shadows: Thanos. A despot of intergalactic infamy, his goal is to collect all six Infinity Stones, artifacts of unimaginable power, and use them to inflict his twisted will on all of reality. Everything the Avengers have fought for has led up to this moment - the fate of Earth and existence itself has never been more uncertain.","release_date":"2018-04-25"},{"popularity":31.638,"vote_count":703,"video":false,"poster_path":"\/kxybd00WzDacNvh82RahMhQJqTb.jpg","id":531428,"adult":false,"backdrop_path":"\/l1e4zQMKNBC5UrNOcZCTcvjdJNh.jpg","original_language":"fr","original_title":"Portrait de la jeune fille en feu","genre_ids":[18,10749],"title":"Portrait of a Lady on Fire","vote_average":8.3,"overview":"On an isolated island in Brittany at the end of the eighteenth century, a female painter is obliged to paint a wedding portrait of a young woman.","release_date":"2019-06-17"},{"popularity":13.968,"vote_count":1247,"video":false,"poster_path":"\/7ZiSTZN5FWsphVmlwFVFfn5EOl.jpg","id":5156,"adult":false,"backdrop_path":"\/loNjs84HrviWIyHNYMNfLKHkon0.jpg","original_language":"it","original_title":"Ladri di biciclette","genre_ids":[18],"title":"Bicycle Thieves","vote_average":8.3,"overview":"Antonio, an unemployed man in the depressed post-WWII economy of Italy, at last finds a good job hanging up posters, the only requirement for which is that he must have his own bicycle. When Antonio’s bicycle is stolen, he and his son are forced to walk the streets of Rome in search of it, or else face ruin.","release_date":"1948-11-24"},{"popularity":27.712,"vote_count":4971,"video":false,"poster_path":"\/gQB8Y5RCMkv2zwzFHbUJX3kAhvA.jpg","id":28,"adult":false,"backdrop_path":"\/9Qs9oyn4iE8QtQjGZ0Hp2WyYNXT.jpg","original_language":"en","original_title":"Apocalypse Now","genre_ids":[18,10752],"title":"Apocalypse Now","vote_average":8.3,"overview":"At the height of the Vietnam war, Captain Benjamin Willard is sent on a dangerous mission that, officially, \"does not exist, nor will it ever exist.\" His goal is to locate - and eliminate - a mysterious Green Beret Colonel named Walter Kurtz, who has been leading his personal army on illegal guerrilla missions into enemy territory.","release_date":"1979-08-15"},{"popularity":22.009,"vote_count":1158,"video":false,"poster_path":"\/2icwBom0t5nmOuZI9FVXF3gkMK0.jpg","id":470044,"adult":false,"backdrop_path":"\/5AijK8OxcTzuT8z6aEcc3kO96eG.jpg","original_language":"en","original_title":"The Hate U Give","genre_ids":[80,18],"title":"The Hate U Give","vote_average":8.3,"overview":"Raised in a poverty-stricken slum, a 16-year-old girl named Starr now attends a suburban prep school. After she witnesses a police officer shoot her unarmed best friend, she's torn between her two very different worlds as she tries to speak her truth.","release_date":"2018-10-19"},{"popularity":30.068,"vote_count":12474,"video":false,"poster_path":"\/sKCr78MXSLixwmZ8DyJLrpMsd15.jpg","id":8587,"adult":false,"backdrop_path":"\/wXsQvli6tWqja51pYxXNG1LFIGV.jpg","original_language":"en","original_title":"The Lion King","genre_ids":[16,18,10751],"title":"The Lion King","vote_average":8.3,"overview":"A young lion prince is cast out of his pride by his cruel uncle, who claims he killed his father. While the uncle rules with an iron paw, the prince grows up beyond the Savannah, living by a philosophy: No worries for the rest of your days. But when his past comes to haunt him, the young prince must decide his fate: Will he remain an outcast or face his demons and become what he needs to be?","release_date":"1994-05-07"},{"popularity":25.317,"vote_count":11879,"video":false,"poster_path":"\/w7WxNbb0mcWpwDMd3pJA7LQRfnt.jpg","id":77338,"adult":false,"backdrop_path":"\/jrHhN09pFlmQ7ayWUofJwumjt5P.jpg","original_language":"fr","original_title":"Intouchables","genre_ids":[35,18],"title":"The Intouchables","vote_average":8.2,"overview":"A true story of two men who should never have met – a quadriplegic aristocrat who was injured in a paragliding accident and a young man from the projects.","release_date":"2011-11-02"},{"popularity":16.025,"id":490,"video":false,"vote_count":1565,"vote_average":8.2,"title":"The Seventh Seal","release_date":"1957-02-16","original_language":"sv","original_title":"Det sjunde inseglet","genre_ids":[14,18],"backdrop_path":"\/d9VUlRTovsGbwkUjNR2OGOGrQuO.jpg","adult":false,"overview":"When disillusioned Swedish knight Antonius Block returns home from the Crusades to find his country in the grips of the Black Death, he challenges Death to a chess match for his life. Tormented by the belief that God does not exist, Block sets off on a journey, meeting up with traveling players Jof and his wife, Mia, and becoming determined to evade Death long enough to commit one redemptive act while he still lives.","poster_path":"\/wcZ21zrOsy0b52AfAF50XpTiv75.jpg"},{"popularity":16.368,"vote_count":2438,"video":false,"poster_path":"\/bSqt9rhDZx1Q7UZ86dBPKdNomp2.jpg","id":1585,"adult":false,"backdrop_path":"\/whxy3UQrbHswzXH6jfH7IGAIjLa.jpg","original_language":"en","original_title":"It's a Wonderful Life","genre_ids":[18,14,10751],"title":"It's a Wonderful Life","vote_average":8.2,"overview":"A holiday favourite for generations...  George Bailey has spent his entire life giving to the people of Bedford Falls.  All that prevents rich skinflint Mr. Potter from taking over the entire town is George's modest building and loan company.  But on Christmas Eve the business's $8,000 is lost and George's troubles begin.","release_date":"1946-12-20"},{"popularity":24.709,"vote_count":4834,"video":false,"poster_path":"\/9eyqhS9MKBQqQJdGmWjKLH396gJ.jpg","id":670,"adult":false,"backdrop_path":"\/47rioCQJLDe6gT7NYdPf7IRy3Nu.jpg","original_language":"ko","original_title":"올드보이","genre_ids":[28,18,9648,53],"title":"Oldboy","vote_average":8.2,"overview":"With no clue how he came to be imprisoned, drugged and tortured for 15 years, a desperate businessman seeks revenge on his captors.","release_date":"2003-11-21"},{"popularity":15.083,"id":895,"video":false,"vote_count":382,"vote_average":8.2,"title":"Andrei Rublev","release_date":"1966-12-16","original_language":"ru","original_title":"Андрей Рублёв","genre_ids":[18,36],"backdrop_path":"\/6nPNNvd62sAxRG0at0beusPFsIU.jpg","adult":false,"overview":"An expansive Russian drama, this film focuses on the life of revered religious icon painter Andrei Rublev. Drifting from place to place in a tumultuous era, the peace-seeking monk eventually gains a reputation for his art. But after Rublev witnesses a brutal battle and unintentionally becomes involved, he takes a vow of silence and spends time away from his work. As he begins to ease his troubled soul, he takes steps towards becoming a painter once again.","poster_path":"\/910xRIUmNJrWH2hkQifBJtoPp5R.jpg"},{"popularity":29.677,"vote_count":2733,"video":false,"poster_path":"\/kreTuJBkUjVWePRfhHZuYfhNE1T.jpg","id":527641,"adult":false,"backdrop_path":"\/27ZkYMWynuK2qiDP6awc3MsCaOs.jpg","original_language":"en","original_title":"Five Feet Apart","genre_ids":[18,10749],"title":"Five Feet Apart","vote_average":8.2,"overview":"Seventeen-year-old Stella spends most of her time in the hospital as a cystic fibrosis patient. Her life is full of routines, boundaries and self-control — all of which get put to the test when she meets Will, an impossibly charming teen who has the same illness. There's an instant flirtation, though restrictions dictate that they must maintain a safe distance between them. As their connection intensifies, so does the temptation to throw the rules out the window and embrace that attraction.","release_date":"2019-03-15"},{"popularity":13.629,"vote_count":1302,"video":false,"poster_path":"\/nqqovhsvsWbsb7LcGaIGDRZrwgB.jpg","id":110420,"adult":false,"backdrop_path":"\/dOm1TXcyFknZjt4BtDT2Y8R00lf.jpg","original_language":"ja","original_title":"おおかみこどもの雨と雪","genre_ids":[16,18,14,10751],"title":"Wolf Children","vote_average":8.2,"overview":"After her werewolf lover unexpectedly dies in an accident, a woman must find a way to raise the son and daughter that she had with him. However, their inheritance of their father's traits prove to be a challenge for her.","release_date":"2012-07-21"},{"popularity":13.404,"id":10098,"video":false,"vote_count":1122,"vote_average":8.2,"title":"The Kid","release_date":"1921-01-21","original_language":"en","original_title":"The Kid","genre_ids":[35,18],"backdrop_path":"\/qxUd8WgfkKIoxlmKFWTjddAOJDz.jpg","adult":false,"overview":"A tramp cares for a boy after he's abandoned as a newborn by his mother. Later the mother has a change of heart and aches to be reunited with her son.","poster_path":"\/drgMcyTsySQBnUPGaBThCHGdlWT.jpg"},{"popularity":19.521,"vote_count":3272,"video":false,"poster_path":"\/15uOEfqBNTVtDUT7hGBVCka0rZz.jpg","id":426,"adult":false,"backdrop_path":"\/7wt1DA7duYtUitwZs4ChV3VYGRx.jpg","original_language":"en","original_title":"Vertigo","genre_ids":[9648,53,10749],"title":"Vertigo","vote_average":8.2,"overview":"A retired San Francisco detective suffering from acrophobia investigates the strange activities of an old friend's wife, all the while becoming dangerously obsessed with her.","release_date":"1958-05-09"}]}